%YAML 1.1
%TAG !u! tag:unity3d.com,2011:
--- !u!114 &2116364168672485439
MonoBehaviour:
  m_ObjectHideFlags: 0
  m_CorrespondingSourceObject: {fileID: 0}
  m_PrefabInstance: {fileID: 0}
  m_PrefabAsset: {fileID: 0}
  m_GameObject: {fileID: 6965378570022678062}
  m_Enabled: 1
  m_EditorHideFlags: 0
  m_Script: {fileID: 11500000, guid: 89a8a308a6f49d245ad3e13013ff064c, type: 3}
  m_Name: 
  m_EditorClassIdentifier: 
--- !u!1001 &6965378570022578318
PrefabInstance:
  m_ObjectHideFlags: 0
  serializedVersion: 2
  m_Modification:
    m_TransformParent: {fileID: 0}
    m_Modifications:
    - target: {fileID: 100000, guid: 0fbcdb522c478854ebb4106207ea7330, type: 3}
      propertyPath: m_Name
      value: Stone
      objectReference: {fileID: 0}
    - target: {fileID: 400000, guid: 0fbcdb522c478854ebb4106207ea7330, type: 3}
      propertyPath: m_LocalPosition.x
      value: -0
      objectReference: {fileID: 0}
    - target: {fileID: 400000, guid: 0fbcdb522c478854ebb4106207ea7330, type: 3}
      propertyPath: m_LocalPosition.y
      value: 0.16691673
      objectReference: {fileID: 0}
    - target: {fileID: 400000, guid: 0fbcdb522c478854ebb4106207ea7330, type: 3}
      propertyPath: m_LocalPosition.z
      value: -0.000000007296162
      objectReference: {fileID: 0}
    - target: {fileID: 400000, guid: 0fbcdb522c478854ebb4106207ea7330, type: 3}
      propertyPath: m_LocalRotation.x
      value: -0.7071068
      objectReference: {fileID: 0}
    - target: {fileID: 400000, guid: 0fbcdb522c478854ebb4106207ea7330, type: 3}
      propertyPath: m_LocalRotation.y
      value: 0
      objectReference: {fileID: 0}
    - target: {fileID: 400000, guid: 0fbcdb522c478854ebb4106207ea7330, type: 3}
      propertyPath: m_LocalRotation.z
      value: -0
      objectReference: {fileID: 0}
    - target: {fileID: 400000, guid: 0fbcdb522c478854ebb4106207ea7330, type: 3}
      propertyPath: m_LocalRotation.w
      value: 0.7071068
      objectReference: {fileID: 0}
    - target: {fileID: 400000, guid: 0fbcdb522c478854ebb4106207ea7330, type: 3}
      propertyPath: m_RootOrder
      value: 0
      objectReference: {fileID: 0}
    - target: {fileID: 400000, guid: 0fbcdb522c478854ebb4106207ea7330, type: 3}
      propertyPath: m_LocalEulerAnglesHint.x
      value: 0
      objectReference: {fileID: 0}
    - target: {fileID: 400000, guid: 0fbcdb522c478854ebb4106207ea7330, type: 3}
      propertyPath: m_LocalEulerAnglesHint.y
      value: 0
      objectReference: {fileID: 0}
    - target: {fileID: 400000, guid: 0fbcdb522c478854ebb4106207ea7330, type: 3}
      propertyPath: m_LocalEulerAnglesHint.z
      value: 0
      objectReference: {fileID: 0}
    m_RemovedComponents:
    - {fileID: 9500000, guid: 0fbcdb522c478854ebb4106207ea7330, type: 3}
  m_SourcePrefab: {fileID: 100100000, guid: 0fbcdb522c478854ebb4106207ea7330, type: 3}
--- !u!1 &6965378570022678062 stripped
GameObject:
  m_CorrespondingSourceObject: {fileID: 100000, guid: 0fbcdb522c478854ebb4106207ea7330,
    type: 3}
  m_PrefabInstance: {fileID: 6965378570022578318}
  m_PrefabAsset: {fileID: 0}
